{
    "card": {
    "section_title":"Optional Section Title",

    "items": [
      {
        "media": {
          "image": "<img src='https://source.unsplash.com/random/1400x787' alt='Test image alternative text'>"
        },
        "eyebrow": {
          "text": "Optional Short Title",
          "classes": " card__eyebrow"
        },
        "heading": {
          "title": "Phasellus auctor, turpis",
          "heading_level": "2",
          "classes": "card__title"
        },
        "subhead": {
          "title": "Optional Subhead Lorem Ipsum Dolor Sit Amet",
          "heading_level": "3",
          "classes": "card__subhead"
        },
        "text": "This copy is optional, if nothing is entered nothing will display. Facit nulla in vulputate vulputate aliquam. Commodo esse habent tation nam. Lorem ipsum dolor sit amet, consectetur adipiscing elit. Proin sed orci lacus.",
        "link": {
          "url": "#",
          "text":"Optional Link"
        }
      },
      {
        "media": {
          "image": "<img src='https://source.unsplash.com/random/1400x787' alt='Test image alternative text'>"
        },
        "eyebrow": {
          "text": "Optional Short Title",
          "classes": " card__eyebrow"
        },
        "heading": {
          "title": "Phasellus auctor, turpis",
          "heading_level": "2",
          "classes": "card__title"
        },
        "subhead": {
          "title": "Optional Subhead Lorem Ipsum Dolor Sit Amet",
          "heading_level": "3",
          "classes": "card__subhead"
        },
        "text": "This copy is optional, if nothing is entered nothing will display. Facit nulla in vulputate vulputate aliquam. Commodo esse habent tation nam. Lorem ipsum dolor sit amet, consectetur adipiscing elit. Proin sed orci lacus.",
        "link": {
          "url": "#",
          "text":"Optional Link"
        }
      },
      {
        "media": {
          "image": "<img src='https://source.unsplash.com/random/1400x787' alt='Test image alternative text'>"
        },
        "eyebrow": {
          "text": "Optional Short Title",
          "classes": " card__eyebrow"
        },
        "heading": {
          "title": "Phasellus auctor, turpis",
          "heading_level": "2",
          "classes": "card__title"
        },
        "subhead": {
          "title": "Optional Subhead Lorem Ipsum Dolor Sit Amet",
          "heading_level": "3",
          "classes": "card__subhead"
        },
        "text": "This copy is optional, if nothing is entered nothing will display. Facit nulla in vulputate vulputate aliquam. Commodo esse habent tation nam. Lorem ipsum dolor sit amet, consectetur adipiscing elit. Proin sed orci lacus.",
        "link": {
          "url": "#",
          "text":"Optional Link"
        }
      }
    ]
  },

  "card_wide": {
    "section_title":"",
    "classes": "card-list--wide",

    "items": [
      {
        "media": {
          "image": "<img src='https://source.unsplash.com/random/1400x787' alt='Test image alternative text'>"
        },
        "eyebrow": "",
        "heading": {
          "url": "http://www.mediacurrent.com",
          "title": "Phasellus auctor, turpis",
          "heading_level": "2",
          "classes": "card__title"
        },
        "subhead": "",
        "text": "This copy is optional, if nothing is entered nothing will display. Facit nulla in vulputate vulputate aliquam. Commodo esse habent tation nam. Lorem ipsum dolor sit amet, consectetur adipiscing elit. Proin sed orci lacus.",
        "link": {
          "url": "#",
          "text":"Optional Link"
        }
      },
      {
        "media": {
          "image": "<img src='https://source.unsplash.com/random/1400x787' alt='Test image alternative text'>"
        },
        "eyebrow": "",
        "heading": {
          "url": "http://www.mediacurrent.com",
          "title": "Phasellus auctor, turpis",
          "heading_level": "2",
          "classes": "card__title"
        },
        "subhead": "",
        "text": "This copy is optional, if nothing is entered nothing will display. Facit nulla in vulputate vulputate aliquam. Commodo esse habent tation nam. Lorem ipsum dolor sit amet, consectetur adipiscing elit. Proin sed orci lacus.",
        "link": {
          "url": "#",
          "text":"Optional Link"
        }
      },
      {
        "media": {
          "image": "<img src='https://source.unsplash.com/random/1400x787' alt='Test image alternative text'>"
        },
        "eyebrow": "",
        "heading": {
          "url": "http://www.mediacurrent.com",
          "title": "Phasellus auctor, turpis",
          "heading_level": "2",
          "classes": "card__title"
        },
        "subhead": "",
        "text": "This copy is optional, if nothing is entered nothing will display. Facit nulla in vulputate vulputate aliquam. Commodo esse habent tation nam. Lorem ipsum dolor sit amet, consectetur adipiscing elit. Proin sed orci lacus.",
        "link": {
          "url": "#",
          "text":"Optional Link"
        }
      }
    ]
  }
}